Assignment 1: Probability and Statistics with R
…
monthlySiteVisits

## # A tibble: 54 x 3
## # Groups:   month [9]
##    month site       total
##    <int> <chr>      <dbl>
##  1     1 Acme     4365335
##  2     1 Botly      31188
##  3     1 Pinnacle   82981
##  4     1 Sortly    220946
##  5     1 Tabular    84523
##  6     1 Widgetry  125768
##  7     2 Acme     3362921
##  8     2 Botly      27527
##  9     2 Pinnacle   60572
## 10     2 Sortly    179241
## #  with 44 more rows
…
we see that most visits are visible for Acme site,However the difference is far higher than other sites, thus in same plot monthly fluctuations on other sites are not apparent anymore, we will filter out visits from Acme and plot the view again

monthlyVisitsWithoutAcme <-monthlySiteVisits%>%filter(site!="Acme")
monthlyVisitsWithoutAcme

## # A tibble: 45 x 3
## # Groups:   month [9]
##    month site      total
##    <int> <chr>     <dbl>
##  1     1 Botly     31188
##  2     1 Pinnacle  82981
##  3     1 Sortly   220946
##  4     1 Tabular   84523
##  5     1 Widgetry 125768
##  6     2 Botly     27527
##  7     2 Pinnacle  60572
##  8     2 Sortly   179241
##  9     2 Tabular   72488
## 10     2 Widgetry 116626
## #  with 35 more rows
…
